{
  "extends": [
    "tslint:recommended"
  ],
  "rulesDirectory": [
    "node_modules/codelyzer"
  ],
  "rules": {
    // Custom
    "trailing-comma": [
      false,
      {
        "multiline": "always",
        "singleline": "never"
      }
    ],
    "interface-name": [
      "never-prefix"
    ],
    // Angular 2
    "component-class-suffix": true,
    "component-selector": [
      "kumo",
      "element",
      "kebab-case"
    ],
    "directive-class-suffix": true,
    "directive-selector": [
      true,
      "attribute",
      "camelCase"
    ],
    "import-destructuring-spacing": true,
    "invoke-injectable": true,
    "no-attribute-parameter-decorator": true,
    "no-forward-ref": true,
    "no-input-rename": true,
    "no-output-rename": true,
    "pipe-naming": [
      "camelCase"
    ],
    "templates-use-public": true,
    "use-host-property-decorator": true,
    "use-input-property-decorator": true,
    "use-life-cycle-interface": true,
    "use-output-property-decorator": true,
    "use-pipe-transform-interface": true,
    // General
    "no-console": [
      true,
      "log",
      "info"
    ],
    "curly": "ignore-same-line",
    "arrow-parens": [
      "ban-single-arg-parens"
    ],
    "member-access": false,
    "no-var-requires": false,
    "no-string-literal": false,
    "member-ordering": true,
    "object-literal-sort-keys": false,
    "ordered-imports": false,
    "quotemark": [
      true,
      "single",
      "avoid-escape"
    ],
    "variable-name": [
      true,
      "allow-leading-underscore",
      "ban-keywords",
      "check-format"
    ]
  }
}
